%YAML 1.1
%TAG !u! tag:unity3d.com,2011:
--- !u!74 &7400000
AnimationClip:
  m_ObjectHideFlags: 0
  m_PrefabParentObject: {fileID: 0}
  m_PrefabInternal: {fileID: 0}
  m_Name: TurboedPlayer3Down
  serializedVersion: 6
  m_Legacy: 0
  m_Compressed: 0
  m_UseHighQualityCurve: 1
  m_RotationCurves: []
  m_CompressedRotationCurves: []
  m_EulerCurves: []
  m_PositionCurves: []
  m_ScaleCurves: []
  m_FloatCurves: []
  m_PPtrCurves:
  - curve:
    - time: 0
      value: {fileID: 21300000, guid: e99ecfae16d99914d8e2764e66bbc2c7, type: 3}
    - time: 0.083333336
      value: {fileID: 21300000, guid: f523dc1054ca36d459b6911686a778bc, type: 3}
    - time: 0.16666667
      value: {fileID: 21300000, guid: b7d976e0c4c2db7429c1050e54150498, type: 3}
    - time: 0.25
      value: {fileID: 21300000, guid: cb484ae3c15c4204c9b9193e687f67da, type: 3}
    - time: 0.33333334
      value: {fileID: 21300000, guid: a9fdb22b752826f4994074fee53d5cd9, type: 3}
    - time: 0.4166667
      value: {fileID: 21300000, guid: 0a3a405c22c8880498b4edd5727aa4f8, type: 3}
    - time: 0.5
      value: {fileID: 21300000, guid: af1f7945cc6a0e54e95a207e9c5ae01a, type: 3}
    - time: 0.5833333
      value: {fileID: 21300000, guid: dca4749b84b05e5478bbf2e8f23f35be, type: 3}
    attribute: m_Sprite
    path: 
    classID: 212
    script: {fileID: 0}
  m_SampleRate: 12
  m_WrapMode: 0
  m_Bounds:
    m_Center: {x: 0, y: 0, z: 0}
    m_Extent: {x: 0, y: 0, z: 0}
  m_ClipBindingConstant:
    genericBindings:
    - path: 0
      attribute: 0
      script: {fileID: 0}
      classID: 212
      customType: 23
      isPPtrCurve: 1
    pptrCurveMapping:
    - {fileID: 21300000, guid: e99ecfae16d99914d8e2764e66bbc2c7, type: 3}
    - {fileID: 21300000, guid: f523dc1054ca36d459b6911686a778bc, type: 3}
    - {fileID: 21300000, guid: b7d976e0c4c2db7429c1050e54150498, type: 3}
    - {fileID: 21300000, guid: cb484ae3c15c4204c9b9193e687f67da, type: 3}
    - {fileID: 21300000, guid: a9fdb22b752826f4994074fee53d5cd9, type: 3}
    - {fileID: 21300000, guid: 0a3a405c22c8880498b4edd5727aa4f8, type: 3}
    - {fileID: 21300000, guid: af1f7945cc6a0e54e95a207e9c5ae01a, type: 3}
    - {fileID: 21300000, guid: dca4749b84b05e5478bbf2e8f23f35be, type: 3}
  m_AnimationClipSettings:
    serializedVersion: 2
    m_AdditiveReferencePoseClip: {fileID: 0}
    m_AdditiveReferencePoseTime: 0
    m_StartTime: 0
    m_StopTime: 0.6666666
    m_OrientationOffsetY: 0
    m_Level: 0
    m_CycleOffset: 0
    m_HasAdditiveReferencePose: 0
    m_LoopTime: 1
    m_LoopBlend: 0
    m_LoopBlendOrientation: 0
    m_LoopBlendPositionY: 0
    m_LoopBlendPositionXZ: 0
    m_KeepOriginalOrientation: 0
    m_KeepOriginalPositionY: 1
    m_KeepOriginalPositionXZ: 0
    m_HeightFromFeet: 0
    m_Mirror: 0
  m_EditorCurves: []
  m_EulerEditorCurves: []
  m_HasGenericRootTransform: 0
  m_HasMotionFloatCurves: 0
  m_GenerateMotionCurves: 0
  m_Events: []
